C:/Users/a.dong/.st_workbench/projects/inverted_pendulum_final/inverted_pendulum/inverted_pendulum/Drivers/STM32F4xx_HAL_Driver/Src/stm32f4xx_hal_flash_ex.c:160:19:HAL_FLASHEx_Erase	24	static
C:/Users/a.dong/.st_workbench/projects/inverted_pendulum_final/inverted_pendulum/inverted_pendulum/Drivers/STM32F4xx_HAL_Driver/Src/stm32f4xx_hal_flash_ex.c:231:19:HAL_FLASHEx_Erase_IT	24	static
C:/Users/a.dong/.st_workbench/projects/inverted_pendulum_final/inverted_pendulum/inverted_pendulum/Drivers/STM32F4xx_HAL_Driver/Src/stm32f4xx_hal_flash_ex.c:284:19:HAL_FLASHEx_OBProgram	24	static
C:/Users/a.dong/.st_workbench/projects/inverted_pendulum_final/inverted_pendulum/inverted_pendulum/Drivers/STM32F4xx_HAL_Driver/Src/stm32f4xx_hal_flash_ex.c:343:6:HAL_FLASHEx_OBGetConfig	16	static
C:/Users/a.dong/.st_workbench/projects/inverted_pendulum_final/inverted_pendulum/inverted_pendulum/Drivers/STM32F4xx_HAL_Driver/Src/stm32f4xx_hal_flash_ex.c:372:19:HAL_FLASHEx_AdvOBProgram	24	static
C:/Users/a.dong/.st_workbench/projects/inverted_pendulum_final/inverted_pendulum/inverted_pendulum/Drivers/STM32F4xx_HAL_Driver/Src/stm32f4xx_hal_flash_ex.c:428:6:HAL_FLASHEx_AdvOBGetConfig	16	static
C:/Users/a.dong/.st_workbench/projects/inverted_pendulum_final/inverted_pendulum/inverted_pendulum/Drivers/STM32F4xx_HAL_Driver/Src/stm32f4xx_hal_flash_ex.c:460:19:HAL_FLASHEx_OB_SelectPCROP	16	static
C:/Users/a.dong/.st_workbench/projects/inverted_pendulum_final/inverted_pendulum/inverted_pendulum/Drivers/STM32F4xx_HAL_Driver/Src/stm32f4xx_hal_flash_ex.c:485:19:HAL_FLASHEx_OB_DeSelectPCROP	16	static
C:/Users/a.dong/.st_workbench/projects/inverted_pendulum_final/inverted_pendulum/inverted_pendulum/Drivers/STM32F4xx_HAL_Driver/Src/stm32f4xx_hal_flash_ex.c:951:13:FLASH_MassErase	16	static
C:/Users/a.dong/.st_workbench/projects/inverted_pendulum_final/inverted_pendulum/inverted_pendulum/Drivers/STM32F4xx_HAL_Driver/Src/stm32f4xx_hal_flash_ex.c:980:6:FLASH_Erase_Sector	24	static
C:/Users/a.dong/.st_workbench/projects/inverted_pendulum_final/inverted_pendulum/inverted_pendulum/Drivers/STM32F4xx_HAL_Driver/Src/stm32f4xx_hal_flash_ex.c:1030:26:FLASH_OB_EnableWRP	24	static
C:/Users/a.dong/.st_workbench/projects/inverted_pendulum_final/inverted_pendulum/inverted_pendulum/Drivers/STM32F4xx_HAL_Driver/Src/stm32f4xx_hal_flash_ex.c:1066:26:FLASH_OB_DisableWRP	24	static
C:/Users/a.dong/.st_workbench/projects/inverted_pendulum_final/inverted_pendulum/inverted_pendulum/Drivers/STM32F4xx_HAL_Driver/Src/stm32f4xx_hal_flash_ex.c:1099:26:FLASH_OB_EnablePCROP	24	static
C:/Users/a.dong/.st_workbench/projects/inverted_pendulum_final/inverted_pendulum/inverted_pendulum/Drivers/STM32F4xx_HAL_Driver/Src/stm32f4xx_hal_flash_ex.c:1127:26:FLASH_OB_DisablePCROP	24	static
C:/Users/a.dong/.st_workbench/projects/inverted_pendulum_final/inverted_pendulum/inverted_pendulum/Drivers/STM32F4xx_HAL_Driver/Src/stm32f4xx_hal_flash_ex.c:1160:26:FLASH_OB_RDP_LevelConfig	24	static
C:/Users/a.dong/.st_workbench/projects/inverted_pendulum_final/inverted_pendulum/inverted_pendulum/Drivers/STM32F4xx_HAL_Driver/Src/stm32f4xx_hal_flash_ex.c:1194:26:FLASH_OB_UserConfig	24	static
C:/Users/a.dong/.st_workbench/projects/inverted_pendulum_final/inverted_pendulum/inverted_pendulum/Drivers/STM32F4xx_HAL_Driver/Src/stm32f4xx_hal_flash_ex.c:1229:26:FLASH_OB_BOR_LevelConfig	16	static
C:/Users/a.dong/.st_workbench/projects/inverted_pendulum_final/inverted_pendulum/inverted_pendulum/Drivers/STM32F4xx_HAL_Driver/Src/stm32f4xx_hal_flash_ex.c:1247:16:FLASH_OB_GetUser	4	static
C:/Users/a.dong/.st_workbench/projects/inverted_pendulum_final/inverted_pendulum/inverted_pendulum/Drivers/STM32F4xx_HAL_Driver/Src/stm32f4xx_hal_flash_ex.c:1257:17:FLASH_OB_GetWRP	4	static
C:/Users/a.dong/.st_workbench/projects/inverted_pendulum_final/inverted_pendulum/inverted_pendulum/Drivers/STM32F4xx_HAL_Driver/Src/stm32f4xx_hal_flash_ex.c:1271:16:FLASH_OB_GetRDP	16	static
C:/Users/a.dong/.st_workbench/projects/inverted_pendulum_final/inverted_pendulum/inverted_pendulum/Drivers/STM32F4xx_HAL_Driver/Src/stm32f4xx_hal_flash_ex.c:1299:16:FLASH_OB_GetBOR	4	static
C:/Users/a.dong/.st_workbench/projects/inverted_pendulum_final/inverted_pendulum/inverted_pendulum/Drivers/STM32F4xx_HAL_Driver/Src/stm32f4xx_hal_flash_ex.c:1309:6:FLASH_FlushCaches	4	static
