C:/Users/a.dong/.st_workbench/projects/inverted_pendulum_final/inverted_pendulum/inverted_pendulum/Src/mc_api.c:69:13:MC_StartMotor1	8	static
C:/Users/a.dong/.st_workbench/projects/inverted_pendulum_final/inverted_pendulum/inverted_pendulum/Src/mc_api.c:89:13:MC_StopMotor1	8	static
C:/Users/a.dong/.st_workbench/projects/inverted_pendulum_final/inverted_pendulum/inverted_pendulum/Src/mc_api.c:125:13:MC_ProgramSpeedRampMotor1	16	static
C:/Users/a.dong/.st_workbench/projects/inverted_pendulum_final/inverted_pendulum/inverted_pendulum/Src/mc_api.c:161:13:MC_ProgramSpeedRampMotor1_F	16	static
C:/Users/a.dong/.st_workbench/projects/inverted_pendulum_final/inverted_pendulum/inverted_pendulum/Src/mc_api.c:197:13:MC_ProgramTorqueRampMotor1	16	static
C:/Users/a.dong/.st_workbench/projects/inverted_pendulum_final/inverted_pendulum/inverted_pendulum/Src/mc_api.c:233:13:MC_ProgramTorqueRampMotor1_F	16	static
C:/Users/a.dong/.st_workbench/projects/inverted_pendulum_final/inverted_pendulum/inverted_pendulum/Src/mc_api.c:258:13:MC_SetCurrentReferenceMotor1	16	static
C:/Users/a.dong/.st_workbench/projects/inverted_pendulum_final/inverted_pendulum/inverted_pendulum/Src/mc_api.c:283:13:MC_SetCurrentReferenceMotor1_F	16	static
C:/Users/a.dong/.st_workbench/projects/inverted_pendulum_final/inverted_pendulum/inverted_pendulum/Src/mc_api.c:299:28:MC_GetCommandStateMotor1	8	static
C:/Users/a.dong/.st_workbench/projects/inverted_pendulum_final/inverted_pendulum/inverted_pendulum/Src/mc_api.c:314:13:MC_StopSpeedRampMotor1	8	static
C:/Users/a.dong/.st_workbench/projects/inverted_pendulum_final/inverted_pendulum/inverted_pendulum/Src/mc_api.c:325:13:MC_StopRampMotor1	8	static
C:/Users/a.dong/.st_workbench/projects/inverted_pendulum_final/inverted_pendulum/inverted_pendulum/Src/mc_api.c:333:13:MC_HasRampCompletedMotor1	8	static
C:/Users/a.dong/.st_workbench/projects/inverted_pendulum_final/inverted_pendulum/inverted_pendulum/Src/mc_api.c:341:16:MC_GetMecSpeedReferenceMotor1	8	static
C:/Users/a.dong/.st_workbench/projects/inverted_pendulum_final/inverted_pendulum/inverted_pendulum/Src/mc_api.c:357:16:MC_GetMecSpeedAverageMotor1	8	static
C:/Users/a.dong/.st_workbench/projects/inverted_pendulum_final/inverted_pendulum/inverted_pendulum/Src/mc_api.c:367:16:MC_GetMecAuxiliarySpeedAverageMotor1	8	static
C:/Users/a.dong/.st_workbench/projects/inverted_pendulum_final/inverted_pendulum/inverted_pendulum/Src/mc_api.c:375:14:MC_GetMecAuxiliarySpeedAverageMotor1_F	8	static
C:/Users/a.dong/.st_workbench/projects/inverted_pendulum_final/inverted_pendulum/inverted_pendulum/Src/mc_api.c:383:16:MC_GetAuxiliaryElAngledppMotor1	8	static
C:/Users/a.dong/.st_workbench/projects/inverted_pendulum_final/inverted_pendulum/inverted_pendulum/Src/mc_api.c:391:14:MC_GetAuxiliaryElAngleMotor1_F	8	static
C:/Users/a.dong/.st_workbench/projects/inverted_pendulum_final/inverted_pendulum/inverted_pendulum/Src/mc_api.c:407:16:MC_GetLastRampFinalSpeedMotor1	8	static
C:/Users/a.dong/.st_workbench/projects/inverted_pendulum_final/inverted_pendulum/inverted_pendulum/Src/mc_api.c:415:14:MC_GetLastRampFinalSpeedMotor1_F	8	static
C:/Users/a.dong/.st_workbench/projects/inverted_pendulum_final/inverted_pendulum/inverted_pendulum/Src/mc_api.c:423:25:MC_GetControlModeMotor1	8	static
C:/Users/a.dong/.st_workbench/projects/inverted_pendulum_final/inverted_pendulum/inverted_pendulum/Src/mc_api.c:439:16:MC_GetImposedDirectionMotor1	8	static
C:/Users/a.dong/.st_workbench/projects/inverted_pendulum_final/inverted_pendulum/inverted_pendulum/Src/mc_api.c:447:13:MC_GetSpeedSensorReliabilityMotor1	8	static
C:/Users/a.dong/.st_workbench/projects/inverted_pendulum_final/inverted_pendulum/inverted_pendulum/Src/mc_api.c:462:16:MC_GetPhaseCurrentAmplitudeMotor1	8	static
C:/Users/a.dong/.st_workbench/projects/inverted_pendulum_final/inverted_pendulum/inverted_pendulum/Src/mc_api.c:477:16:MC_GetPhaseVoltageAmplitudeMotor1	8	static
C:/Users/a.dong/.st_workbench/projects/inverted_pendulum_final/inverted_pendulum/inverted_pendulum/Src/mc_api.c:485:13:MC_GetIabMotor1	16	static
C:/Users/a.dong/.st_workbench/projects/inverted_pendulum_final/inverted_pendulum/inverted_pendulum/Src/mc_api.c:493:15:MC_GetIabMotor1_F	24	static
C:/Users/a.dong/.st_workbench/projects/inverted_pendulum_final/inverted_pendulum/inverted_pendulum/Src/mc_api.c:501:20:MC_GetIalphabetaMotor1	16	static
C:/Users/a.dong/.st_workbench/projects/inverted_pendulum_final/inverted_pendulum/inverted_pendulum/Src/mc_api.c:509:13:MC_GetIqdMotor1	16	static
C:/Users/a.dong/.st_workbench/projects/inverted_pendulum_final/inverted_pendulum/inverted_pendulum/Src/mc_api.c:517:15:MC_GetIqdMotor1_F	24	static
C:/Users/a.dong/.st_workbench/projects/inverted_pendulum_final/inverted_pendulum/inverted_pendulum/Src/mc_api.c:525:13:MC_GetIqdrefMotor1	16	static
C:/Users/a.dong/.st_workbench/projects/inverted_pendulum_final/inverted_pendulum/inverted_pendulum/Src/mc_api.c:533:15:MC_GetIqdrefMotor1_F	24	static
C:/Users/a.dong/.st_workbench/projects/inverted_pendulum_final/inverted_pendulum/inverted_pendulum/Src/mc_api.c:541:13:MC_GetVqdMotor1	16	static
C:/Users/a.dong/.st_workbench/projects/inverted_pendulum_final/inverted_pendulum/inverted_pendulum/Src/mc_api.c:549:20:MC_GetValphabetaMotor1	16	static
C:/Users/a.dong/.st_workbench/projects/inverted_pendulum_final/inverted_pendulum/inverted_pendulum/Src/mc_api.c:557:16:MC_GetElAngledppMotor1	8	static
C:/Users/a.dong/.st_workbench/projects/inverted_pendulum_final/inverted_pendulum/inverted_pendulum/Src/mc_api.c:565:16:MC_GetTerefMotor1	8	static
C:/Users/a.dong/.st_workbench/projects/inverted_pendulum_final/inverted_pendulum/inverted_pendulum/Src/mc_api.c:573:14:MC_GetTerefMotor1_F	8	static
C:/Users/a.dong/.st_workbench/projects/inverted_pendulum_final/inverted_pendulum/inverted_pendulum/Src/mc_api.c:586:13:MC_Clear_IqdrefMotor1	8	static
C:/Users/a.dong/.st_workbench/projects/inverted_pendulum_final/inverted_pendulum/inverted_pendulum/Src/mc_api.c:599:13:MC_AcknowledgeFaultMotor1	8	static
C:/Users/a.dong/.st_workbench/projects/inverted_pendulum_final/inverted_pendulum/inverted_pendulum/Src/mc_api.c:613:17:MC_GetOccurredFaultsMotor1	8	static
C:/Users/a.dong/.st_workbench/projects/inverted_pendulum_final/inverted_pendulum/inverted_pendulum/Src/mc_api.c:627:17:MC_GetCurrentFaultsMotor1	8	static
C:/Users/a.dong/.st_workbench/projects/inverted_pendulum_final/inverted_pendulum/inverted_pendulum/Src/mc_api.c:635:21:MC_GetSTMStateMotor1	8	static
C:/Users/a.dong/.st_workbench/projects/inverted_pendulum_final/inverted_pendulum/inverted_pendulum/Src/mc_api.c:673:6:MC_SetPolarizationOffsetsMotor1	16	static
C:/Users/a.dong/.st_workbench/projects/inverted_pendulum_final/inverted_pendulum/inverted_pendulum/Src/mc_api.c:692:6:MC_GetPolarizationOffsetsMotor1	16	static
C:/Users/a.dong/.st_workbench/projects/inverted_pendulum_final/inverted_pendulum/inverted_pendulum/Src/mc_api.c:712:6:MC_StartPolarizationOffsetsMeasurementMotor1	8	static
C:/Users/a.dong/.st_workbench/projects/inverted_pendulum_final/inverted_pendulum/inverted_pendulum/Src/mc_api.c:723:14:MC_GetAveragePowerMotor1_F	8	static
C:/Users/a.dong/.st_workbench/projects/inverted_pendulum_final/inverted_pendulum/inverted_pendulum/Src/mc_api.c:731:16:MC_ProfilerCommand	24	static
