C:/Users/a.dong/.st_workbench/projects/inverted_pendulum_final/inverted_pendulum/inverted_pendulum/Src/pwm_curr_fdbk.c:75:6:PWMC_Clear	16	static
C:/Users/a.dong/.st_workbench/projects/inverted_pendulum_final/inverted_pendulum/inverted_pendulum/Src/pwm_curr_fdbk.c:100:13:PWMC_SetOffsetCalib	16	static
C:/Users/a.dong/.st_workbench/projects/inverted_pendulum_final/inverted_pendulum/inverted_pendulum/Src/pwm_curr_fdbk.c:117:13:PWMC_GetOffsetCalib	16	static
C:/Users/a.dong/.st_workbench/projects/inverted_pendulum_final/inverted_pendulum/inverted_pendulum/Src/pwm_curr_fdbk.c:151:13:PWMC_GetPhaseCurrents	16	static
C:/Users/a.dong/.st_workbench/projects/inverted_pendulum_final/inverted_pendulum/inverted_pendulum/Src/pwm_curr_fdbk.c:194:17:PWMC_SetPhaseVoltage	56	static
C:/Users/a.dong/.st_workbench/projects/inverted_pendulum_final/inverted_pendulum/inverted_pendulum/Src/pwm_curr_fdbk.c:344:13:PWMC_SwitchOffPWM	16	static
C:/Users/a.dong/.st_workbench/projects/inverted_pendulum_final/inverted_pendulum/inverted_pendulum/Src/pwm_curr_fdbk.c:366:13:PWMC_SwitchOnPWM	16	static
C:/Users/a.dong/.st_workbench/projects/inverted_pendulum_final/inverted_pendulum/inverted_pendulum/Src/pwm_curr_fdbk.c:394:13:PWMC_CurrentReadingCalibr	24	static
C:/Users/a.dong/.st_workbench/projects/inverted_pendulum_final/inverted_pendulum/inverted_pendulum/Src/pwm_curr_fdbk.c:455:23:PWMC_LowPassFilter	32	static
C:/Users/a.dong/.st_workbench/projects/inverted_pendulum_final/inverted_pendulum/inverted_pendulum/Src/pwm_curr_fdbk.c:496:6:PWMC_CalcPhaseCurrentsEst	40	static
C:/Users/a.dong/.st_workbench/projects/inverted_pendulum_final/inverted_pendulum/inverted_pendulum/Src/pwm_curr_fdbk.c:551:13:PWMC_TurnOnLowSides	16	static
C:/Users/a.dong/.st_workbench/projects/inverted_pendulum_final/inverted_pendulum/inverted_pendulum/Src/pwm_curr_fdbk.c:573:17:PWMC_CheckOverCurrent	16	static
C:/Users/a.dong/.st_workbench/projects/inverted_pendulum_final/inverted_pendulum/inverted_pendulum/Src/pwm_curr_fdbk.c:591:13:PWMC_OCPSetReferenceVoltage	16	static
C:/Users/a.dong/.st_workbench/projects/inverted_pendulum_final/inverted_pendulum/inverted_pendulum/Src/pwm_curr_fdbk.c:614:13:PWMC_GetTurnOnLowSidesAction	16	static
C:/Users/a.dong/.st_workbench/projects/inverted_pendulum_final/inverted_pendulum/inverted_pendulum/Src/pwm_curr_fdbk.c:626:13:PWMC_DPWM_ModeEnable	16	static
C:/Users/a.dong/.st_workbench/projects/inverted_pendulum_final/inverted_pendulum/inverted_pendulum/Src/pwm_curr_fdbk.c:645:13:PWMC_DPWM_ModeDisable	16	static
C:/Users/a.dong/.st_workbench/projects/inverted_pendulum_final/inverted_pendulum/inverted_pendulum/Src/pwm_curr_fdbk.c:665:13:PWMC_GetDPWM_Mode	16	static
C:/Users/a.dong/.st_workbench/projects/inverted_pendulum_final/inverted_pendulum/inverted_pendulum/Src/pwm_curr_fdbk.c:678:13:PWMC_RLDetectionModeEnable	16	static
C:/Users/a.dong/.st_workbench/projects/inverted_pendulum_final/inverted_pendulum/inverted_pendulum/Src/pwm_curr_fdbk.c:698:13:PWMC_RLDetectionModeDisable	16	static
C:/Users/a.dong/.st_workbench/projects/inverted_pendulum_final/inverted_pendulum/inverted_pendulum/Src/pwm_curr_fdbk.c:722:17:PWMC_RLDetectionModeSetDuty	16	static
C:/Users/a.dong/.st_workbench/projects/inverted_pendulum_final/inverted_pendulum/inverted_pendulum/Src/pwm_curr_fdbk.c:749:6:PWMC_SetAlignFlag	16	static
C:/Users/a.dong/.st_workbench/projects/inverted_pendulum_final/inverted_pendulum/inverted_pendulum/Src/pwm_curr_fdbk.c:771:13:PWMC_RegisterGetPhaseCurrentsCallBack	16	static
C:/Users/a.dong/.st_workbench/projects/inverted_pendulum_final/inverted_pendulum/inverted_pendulum/Src/pwm_curr_fdbk.c:794:13:PWMC_RegisterSwitchOffPwmCallBack	16	static
C:/Users/a.dong/.st_workbench/projects/inverted_pendulum_final/inverted_pendulum/inverted_pendulum/Src/pwm_curr_fdbk.c:817:13:PWMC_RegisterSwitchonPwmCallBack	16	static
C:/Users/a.dong/.st_workbench/projects/inverted_pendulum_final/inverted_pendulum/inverted_pendulum/Src/pwm_curr_fdbk.c:840:13:PWMC_RegisterReadingCalibrationCallBack	16	static
C:/Users/a.dong/.st_workbench/projects/inverted_pendulum_final/inverted_pendulum/inverted_pendulum/Src/pwm_curr_fdbk.c:862:13:PWMC_RegisterTurnOnLowSidesCallBack	16	static
C:/Users/a.dong/.st_workbench/projects/inverted_pendulum_final/inverted_pendulum/inverted_pendulum/Src/pwm_curr_fdbk.c:884:13:PWMC_RegisterSampPointSectXCallBack	16	static
C:/Users/a.dong/.st_workbench/projects/inverted_pendulum_final/inverted_pendulum/inverted_pendulum/Src/pwm_curr_fdbk.c:906:13:PWMC_RegisterIsOverCurrentOccurredCallBack	16	static
C:/Users/a.dong/.st_workbench/projects/inverted_pendulum_final/inverted_pendulum/inverted_pendulum/Src/pwm_curr_fdbk.c:929:13:PWMC_RegisterOCPSetRefVoltageCallBack	16	static
C:/Users/a.dong/.st_workbench/projects/inverted_pendulum_final/inverted_pendulum/inverted_pendulum/Src/pwm_curr_fdbk.c:951:13:PWMC_RegisterRLDetectionModeEnableCallBack	16	static
C:/Users/a.dong/.st_workbench/projects/inverted_pendulum_final/inverted_pendulum/inverted_pendulum/Src/pwm_curr_fdbk.c:973:13:PWMC_RegisterRLDetectionModeDisableCallBack	16	static
C:/Users/a.dong/.st_workbench/projects/inverted_pendulum_final/inverted_pendulum/inverted_pendulum/Src/pwm_curr_fdbk.c:996:13:PWMC_RegisterRLDetectionModeSetDutyCallBack	16	static
