C:/Users/a.dong/.st_workbench/projects/inverted_pendulum_final/inverted_pendulum/inverted_pendulum/MCSDK_v6.1.2-Full/MotorControl/MCSDK/MCLib/Any/Src/ramp_ext_mngr.c:44:6:REMNG_Init	16	static
C:/Users/a.dong/.st_workbench/projects/inverted_pendulum_final/inverted_pendulum/inverted_pendulum/MCSDK_v6.1.2-Full/MotorControl/MCSDK/MCLib/Any/Src/ramp_ext_mngr.c:78:16:REMNG_Calc	24	static
C:/Users/a.dong/.st_workbench/projects/inverted_pendulum_final/inverted_pendulum/inverted_pendulum/MCSDK_v6.1.2-Full/MotorControl/MCSDK/MCLib/Any/Src/ramp_ext_mngr.c:131:13:REMNG_ExecRamp	56	static
C:/Users/a.dong/.st_workbench/projects/inverted_pendulum_final/inverted_pendulum/inverted_pendulum/MCSDK_v6.1.2-Full/MotorControl/MCSDK/MCLib/Any/Src/ramp_ext_mngr.c:217:16:REMNG_GetValue	16	static
C:/Users/a.dong/.st_workbench/projects/inverted_pendulum_final/inverted_pendulum/inverted_pendulum/MCSDK_v6.1.2-Full/MotorControl/MCSDK/MCLib/Any/Src/ramp_ext_mngr.c:238:13:REMNG_RampCompleted	24	static
C:/Users/a.dong/.st_workbench/projects/inverted_pendulum_final/inverted_pendulum/inverted_pendulum/MCSDK_v6.1.2-Full/MotorControl/MCSDK/MCLib/Any/Src/ramp_ext_mngr.c:269:13:REMNG_StopRamp	16	static
C:/Users/a.dong/.st_workbench/projects/inverted_pendulum_final/inverted_pendulum/inverted_pendulum/MCSDK_v6.1.2-Full/MotorControl/MCSDK/MCLib/Any/Src/ramp_ext_mngr.c:293:17:getScalingFactor	32	static
