C:/Users/a.dong/.st_workbench/projects/inverted_pendulum_final/inverted_pendulum/inverted_pendulum/MCSDK_v6.1.2-Full/MotorControl/MCSDK/MCLib/Any/Src/revup_ctrl.c:95:16:RUC_GetPhaseFinalMecSpeed01Hz	24	static
C:/Users/a.dong/.st_workbench/projects/inverted_pendulum_final/inverted_pendulum/inverted_pendulum/MCSDK_v6.1.2-Full/MotorControl/MCSDK/MCLib/Any/Src/revup_ctrl.c:122:13:RUC_Init	32	static
C:/Users/a.dong/.st_workbench/projects/inverted_pendulum_final/inverted_pendulum/inverted_pendulum/MCSDK_v6.1.2-Full/MotorControl/MCSDK/MCLib/Any/Src/revup_ctrl.c:176:13:RUC_Clear	32	static
C:/Users/a.dong/.st_workbench/projects/inverted_pendulum_final/inverted_pendulum/inverted_pendulum/MCSDK_v6.1.2-Full/MotorControl/MCSDK/MCLib/Any/Src/revup_ctrl.c:238:13:RUC_OTF_Exec	48	static
C:/Users/a.dong/.st_workbench/projects/inverted_pendulum_final/inverted_pendulum/inverted_pendulum/MCSDK_v6.1.2-Full/MotorControl/MCSDK/MCLib/Any/Src/revup_ctrl.c:487:13:RUC_Exec	24	static
C:/Users/a.dong/.st_workbench/projects/inverted_pendulum_final/inverted_pendulum/inverted_pendulum/MCSDK_v6.1.2-Full/MotorControl/MCSDK/MCLib/Any/Src/revup_ctrl.c:545:9:RUC_IsAlignStageNow	24	static
C:/Users/a.dong/.st_workbench/projects/inverted_pendulum_final/inverted_pendulum/inverted_pendulum/MCSDK_v6.1.2-Full/MotorControl/MCSDK/MCLib/Any/Src/revup_ctrl.c:573:13:RUC_Completed	24	static
C:/Users/a.dong/.st_workbench/projects/inverted_pendulum_final/inverted_pendulum/inverted_pendulum/MCSDK_v6.1.2-Full/MotorControl/MCSDK/MCLib/Any/Src/revup_ctrl.c:598:13:RUC_Stop	24	static
C:/Users/a.dong/.st_workbench/projects/inverted_pendulum_final/inverted_pendulum/inverted_pendulum/MCSDK_v6.1.2-Full/MotorControl/MCSDK/MCLib/Any/Src/revup_ctrl.c:630:13:RUC_FirstAccelerationStageReached	24	static
C:/Users/a.dong/.st_workbench/projects/inverted_pendulum_final/inverted_pendulum/inverted_pendulum/MCSDK_v6.1.2-Full/MotorControl/MCSDK/MCLib/Any/Src/revup_ctrl.c:659:13:RUC_SetPhaseDurationms	16	static
C:/Users/a.dong/.st_workbench/projects/inverted_pendulum_final/inverted_pendulum/inverted_pendulum/MCSDK_v6.1.2-Full/MotorControl/MCSDK/MCLib/Any/Src/revup_ctrl.c:683:13:RUC_SetPhaseFinalMecSpeedUnit	16	static
C:/Users/a.dong/.st_workbench/projects/inverted_pendulum_final/inverted_pendulum/inverted_pendulum/MCSDK_v6.1.2-Full/MotorControl/MCSDK/MCLib/Any/Src/revup_ctrl.c:706:13:RUC_SetPhaseFinalTorque	16	static
C:/Users/a.dong/.st_workbench/projects/inverted_pendulum_final/inverted_pendulum/inverted_pendulum/MCSDK_v6.1.2-Full/MotorControl/MCSDK/MCLib/Any/Src/revup_ctrl.c:734:13:RUC_SetPhase	32	static
C:/Users/a.dong/.st_workbench/projects/inverted_pendulum_final/inverted_pendulum/inverted_pendulum/MCSDK_v6.1.2-Full/MotorControl/MCSDK/MCLib/Any/Src/revup_ctrl.c:761:17:RUC_GetPhaseDurationms	16	static
C:/Users/a.dong/.st_workbench/projects/inverted_pendulum_final/inverted_pendulum/inverted_pendulum/MCSDK_v6.1.2-Full/MotorControl/MCSDK/MCLib/Any/Src/revup_ctrl.c:777:16:RUC_GetPhaseFinalMecSpeedUnit	16	static
C:/Users/a.dong/.st_workbench/projects/inverted_pendulum_final/inverted_pendulum/inverted_pendulum/MCSDK_v6.1.2-Full/MotorControl/MCSDK/MCLib/Any/Src/revup_ctrl.c:793:16:RUC_GetPhaseFinalTorque	16	static
C:/Users/a.dong/.st_workbench/projects/inverted_pendulum_final/inverted_pendulum/inverted_pendulum/MCSDK_v6.1.2-Full/MotorControl/MCSDK/MCLib/Any/Src/revup_ctrl.c:809:16:RUC_GetNumberOfPhases	16	static
C:/Users/a.dong/.st_workbench/projects/inverted_pendulum_final/inverted_pendulum/inverted_pendulum/MCSDK_v6.1.2-Full/MotorControl/MCSDK/MCLib/Any/Src/revup_ctrl.c:830:13:RUC_GetPhase	32	static
C:/Users/a.dong/.st_workbench/projects/inverted_pendulum_final/inverted_pendulum/inverted_pendulum/MCSDK_v6.1.2-Full/MotorControl/MCSDK/MCLib/Any/Src/revup_ctrl.c:855:13:RUC_Get_SCLowsideOTF_Status	16	static
