C:/Users/a.dong/.st_workbench/projects/inverted_pendulum_final/inverted_pendulum/inverted_pendulum/MCSDK_v6.1.2-Full/MotorControl/MCSDK/MCLib/Any/Src/sto_pll_speed_pos_fdbk.c:63:13:STO_PLL_Init	24	static
C:/Users/a.dong/.st_workbench/projects/inverted_pendulum_final/inverted_pendulum/inverted_pendulum/MCSDK_v6.1.2-Full/MotorControl/MCSDK/MCLib/Any/Src/sto_pll_speed_pos_fdbk.c:114:13:STO_PLL_Return	16	static
C:/Users/a.dong/.st_workbench/projects/inverted_pendulum_final/inverted_pendulum/inverted_pendulum/MCSDK_v6.1.2-Full/MotorControl/MCSDK/MCLib/Any/Src/sto_pll_speed_pos_fdbk.c:147:16:STO_PLL_CalcElAngle	64	static
C:/Users/a.dong/.st_workbench/projects/inverted_pendulum_final/inverted_pendulum/inverted_pendulum/MCSDK_v6.1.2-Full/MotorControl/MCSDK/MCLib/Any/Src/sto_pll_speed_pos_fdbk.c:394:13:STO_PLL_CalcAvrgMecSpeedUnit	104	static
C:/Users/a.dong/.st_workbench/projects/inverted_pendulum_final/inverted_pendulum/inverted_pendulum/MCSDK_v6.1.2-Full/MotorControl/MCSDK/MCLib/Any/Src/sto_pll_speed_pos_fdbk.c:553:13:STO_PLL_CalcAvrgElSpeedDpp	40	static
C:/Users/a.dong/.st_workbench/projects/inverted_pendulum_final/inverted_pendulum/inverted_pendulum/MCSDK_v6.1.2-Full/MotorControl/MCSDK/MCLib/Any/Src/sto_pll_speed_pos_fdbk.c:619:13:STO_PLL_Clear	16	static
C:/Users/a.dong/.st_workbench/projects/inverted_pendulum_final/inverted_pendulum/inverted_pendulum/MCSDK_v6.1.2-Full/MotorControl/MCSDK/MCLib/Any/Src/sto_pll_speed_pos_fdbk.c:656:20:STO_Store_Rotor_Speed	24	static
C:/Users/a.dong/.st_workbench/projects/inverted_pendulum_final/inverted_pendulum/inverted_pendulum/MCSDK_v6.1.2-Full/MotorControl/MCSDK/MCLib/Any/Src/sto_pll_speed_pos_fdbk.c:679:23:STO_ExecutePLL	40	static
C:/Users/a.dong/.st_workbench/projects/inverted_pendulum_final/inverted_pendulum/inverted_pendulum/MCSDK_v6.1.2-Full/MotorControl/MCSDK/MCLib/Any/Src/sto_pll_speed_pos_fdbk.c:715:13:STO_InitSpeedBuffer	24	static
C:/Users/a.dong/.st_workbench/projects/inverted_pendulum_final/inverted_pendulum/inverted_pendulum/MCSDK_v6.1.2-Full/MotorControl/MCSDK/MCLib/Any/Src/sto_pll_speed_pos_fdbk.c:744:13:STO_PLL_IsObserverConverged	32	static
C:/Users/a.dong/.st_workbench/projects/inverted_pendulum_final/inverted_pendulum/inverted_pendulum/MCSDK_v6.1.2-Full/MotorControl/MCSDK/MCLib/Any/Src/sto_pll_speed_pos_fdbk.c:849:20:STO_PLL_GetEstimatedBemf	24	static
C:/Users/a.dong/.st_workbench/projects/inverted_pendulum_final/inverted_pendulum/inverted_pendulum/MCSDK_v6.1.2-Full/MotorControl/MCSDK/MCLib/Any/Src/sto_pll_speed_pos_fdbk.c:875:20:STO_PLL_GetEstimatedCurrent	24	static
C:/Users/a.dong/.st_workbench/projects/inverted_pendulum_final/inverted_pendulum/inverted_pendulum/MCSDK_v6.1.2-Full/MotorControl/MCSDK/MCLib/Any/Src/sto_pll_speed_pos_fdbk.c:910:13:STO_PLL_GetObserverGains	24	static
C:/Users/a.dong/.st_workbench/projects/inverted_pendulum_final/inverted_pendulum/inverted_pendulum/MCSDK_v6.1.2-Full/MotorControl/MCSDK/MCLib/Any/Src/sto_pll_speed_pos_fdbk.c:931:13:STO_PLL_SetObserverGains	16	static
C:/Users/a.dong/.st_workbench/projects/inverted_pendulum_final/inverted_pendulum/inverted_pendulum/MCSDK_v6.1.2-Full/MotorControl/MCSDK/MCLib/Any/Src/sto_pll_speed_pos_fdbk.c:952:13:STO_GetPLLGains	24	static
C:/Users/a.dong/.st_workbench/projects/inverted_pendulum_final/inverted_pendulum/inverted_pendulum/MCSDK_v6.1.2-Full/MotorControl/MCSDK/MCLib/Any/Src/sto_pll_speed_pos_fdbk.c:974:13:STO_SetPLLGains	16	static
C:/Users/a.dong/.st_workbench/projects/inverted_pendulum_final/inverted_pendulum/inverted_pendulum/MCSDK_v6.1.2-Full/MotorControl/MCSDK/MCLib/Any/Src/sto_pll_speed_pos_fdbk.c:1002:13:STO_PLL_SetMecAngle	16	static
C:/Users/a.dong/.st_workbench/projects/inverted_pendulum_final/inverted_pendulum/inverted_pendulum/MCSDK_v6.1.2-Full/MotorControl/MCSDK/MCLib/Any/Src/sto_pll_speed_pos_fdbk.c:1021:13:STO_OTF_ResetPLL	24	static
C:/Users/a.dong/.st_workbench/projects/inverted_pendulum_final/inverted_pendulum/inverted_pendulum/MCSDK_v6.1.2-Full/MotorControl/MCSDK/MCLib/Any/Src/sto_pll_speed_pos_fdbk.c:1050:13:STO_ResetPLL	16	static
C:/Users/a.dong/.st_workbench/projects/inverted_pendulum_final/inverted_pendulum/inverted_pendulum/MCSDK_v6.1.2-Full/MotorControl/MCSDK/MCLib/Any/Src/sto_pll_speed_pos_fdbk.c:1073:13:STO_SetPLL	24	static
C:/Users/a.dong/.st_workbench/projects/inverted_pendulum_final/inverted_pendulum/inverted_pendulum/MCSDK_v6.1.2-Full/MotorControl/MCSDK/MCLib/Any/Src/sto_pll_speed_pos_fdbk.c:1096:16:STO_PLL_GetEstimatedBemfLevel	16	static
C:/Users/a.dong/.st_workbench/projects/inverted_pendulum_final/inverted_pendulum/inverted_pendulum/MCSDK_v6.1.2-Full/MotorControl/MCSDK/MCLib/Any/Src/sto_pll_speed_pos_fdbk.c:1110:16:STO_PLL_GetObservedBemfLevel	16	static
C:/Users/a.dong/.st_workbench/projects/inverted_pendulum_final/inverted_pendulum/inverted_pendulum/MCSDK_v6.1.2-Full/MotorControl/MCSDK/MCLib/Any/Src/sto_pll_speed_pos_fdbk.c:1125:13:STO_PLL_BemfConsistencyCheckSwitch	16	static
C:/Users/a.dong/.st_workbench/projects/inverted_pendulum_final/inverted_pendulum/inverted_pendulum/MCSDK_v6.1.2-Full/MotorControl/MCSDK/MCLib/Any/Src/sto_pll_speed_pos_fdbk.c:1147:13:STO_PLL_IsBemfConsistent	16	static
C:/Users/a.dong/.st_workbench/projects/inverted_pendulum_final/inverted_pendulum/inverted_pendulum/MCSDK_v6.1.2-Full/MotorControl/MCSDK/MCLib/Any/Src/sto_pll_speed_pos_fdbk.c:1162:13:STO_PLL_IsVarianceTight	24	static
C:/Users/a.dong/.st_workbench/projects/inverted_pendulum_final/inverted_pendulum/inverted_pendulum/MCSDK_v6.1.2-Full/MotorControl/MCSDK/MCLib/Any/Src/sto_pll_speed_pos_fdbk.c:1186:13:STO_PLL_ForceConvergency1	24	static
C:/Users/a.dong/.st_workbench/projects/inverted_pendulum_final/inverted_pendulum/inverted_pendulum/MCSDK_v6.1.2-Full/MotorControl/MCSDK/MCLib/Any/Src/sto_pll_speed_pos_fdbk.c:1208:13:STO_PLL_ForceConvergency2	24	static
C:/Users/a.dong/.st_workbench/projects/inverted_pendulum_final/inverted_pendulum/inverted_pendulum/MCSDK_v6.1.2-Full/MotorControl/MCSDK/MCLib/Any/Src/sto_pll_speed_pos_fdbk.c:1232:13:STO_SetMinStartUpValidSpeedUnit	16	static
C:/Users/a.dong/.st_workbench/projects/inverted_pendulum_final/inverted_pendulum/inverted_pendulum/MCSDK_v6.1.2-Full/MotorControl/MCSDK/MCLib/Any/Src/sto_pll_speed_pos_fdbk.c:1251:13:STO_SetDirection	16	static
